{"pageIndex": 1, "pageSize": 5, "pageCount": 2249, "totalCount": 11243, "items": [{"membershipTypeId": null, "membershipType": null, "doctorName": null, "lastDoctorName": null, "officeName": null, "recordCreatedUserName": null, "shareName": null, "recordCreatedTime": "0001-01-01T00:00:00", "totalAmount": null, "isSharedMembershipExpired": false, "province": null, "city": null, "district": null, "content": null, "dutyDoctorName": "", "onlineConsultantName": "", "developerId": null, "developerName": "", "attendantId": null, "attendantName": "", "job": null, "privateTag": null, "field1": null, "field2": null, "field3": null, "field4": null, "field5": null, "field6": null, "field7": null, "field8": null, "field9": null, "field10": null, "field11": null, "field12": null, "field13": null, "field14": null, "field15": null, "field16": null, "field17": null, "field18": null, "field19": null, "field20": null, "totalCount": 0, "id": 456207, "officeId": 0, "privateId": "L4441", "otherPrivateId": null, "name": "\u90d1\u84d3", "nameCode": null, "sex": 2, "birth": null, "mobile": null, "phoneNumber": null, "phoneNumber1": null, "phoneNumber2": null, "phoneNumber3": null, "phoneNumber4": null, "phoneNumber5": null, "email": null, "occupation": null, "qq": null, "weixin": null, "identityCard": null, "homeAddress": null, "sourceTypeLevel1": null, "sourceType": null, "refereeName": null, "refereeId": null, "sourceTypeOne": null, "sourceTypeTwo": null, "sourceTypeThree": null, "medicalAlert": null, "firstVisit": null, "overdue": null, "pictureId": 0, "patientType": "\u4e34\u65f6", "isArchived": false, "isShared": false, "marketCenterAccount": null, "aliMarketCenterAccount": null, "membershipId": null, "tag": null, "dutyDoctorId": null, "doctorId": null, "nickName": null, "lastVisit": null, "lastDoctorId": null, "point": 0, "notes": null, "consultantId": null, "nationality": null, "medicine": "", "membershipTypeName": null, "membershipTypeAbbr": null, "cardNumber": null, "familyAddress": null, "isMembershipExpired": false, "onlineConsultantId": 0, "recordCreatedUser": 0, "department": null}, {"membershipTypeId": null, "membershipType": null, "doctorName": null, "lastDoctorName": null, "officeName": null, "recordCreatedUserName": null, "shareName": null, "recordCreatedTime": "0001-01-01T00:00:00", "totalAmount": null, "isSharedMembershipExpired": false, "province": null, "city": null, "district": null, "content": null, "dutyDoctorName": "", "onlineConsultantName": "", "developerId": null, "developerName": "", "attendantId": null, "attendantName": "", "job": null, "privateTag": null, "field1": null, "field2": null, "field3": null, "field4": null, "field5": null, "field6": null, "field7": null, "field8": null, "field9": null, "field10": null, "field11": null, "field12": null, "field13": null, "field14": null, "field15": null, "field16": null, "field17": null, "field18": null, "field19": null, "field20": null, "totalCount": 0, "id": 456203, "officeId": 0, "privateId": "L4440", "otherPrivateId": null, "name": "\u4efb\u5973\u58eb", "nameCode": null, "sex": 0, "birth": null, "mobile": "\u672c\u4eba:15869173840", "phoneNumber": null, "phoneNumber1": null, "phoneNumber2": null, "phoneNumber3": null, "phoneNumber4": null, "phoneNumber5": null, "email": null, "occupation": null, "qq": null, "weixin": null, "identityCard": null, "homeAddress": null, "sourceTypeLevel1": null, "sourceType": null, "refereeName": null, "refereeId": null, "sourceTypeOne": null, "sourceTypeTwo": null, "sourceTypeThree": null, "medicalAlert": null, "firstVisit": null, "overdue": null, "pictureId": 0, "patientType": "\u4e34\u65f6", "isArchived": false, "isShared": false, "marketCenterAccount": null, "aliMarketCenterAccount": null, "membershipId": null, "tag": null, "dutyDoctorId": null, "doctorId": null, "nickName": null, "lastVisit": null, "lastDoctorId": null, "point": 0, "notes": null, "consultantId": null, "nationality": null, "medicine": "", "membershipTypeName": null, "membershipTypeAbbr": null, "cardNumber": null, "familyAddress": null, "isMembershipExpired": false, "onlineConsultantId": 0, "recordCreatedUser": 0, "department": null}, {"membershipTypeId": null, "membershipType": null, "doctorName": null, "lastDoctorName": null, "officeName": null, "recordCreatedUserName": null, "shareName": null, "recordCreatedTime": "0001-01-01T00:00:00", "totalAmount": null, "isSharedMembershipExpired": false, "province": null, "city": null, "district": null, "content": null, "dutyDoctorName": "", "onlineConsultantName": "", "developerId": null, "developerName": "", "attendantId": null, "attendantName": "", "job": null, "privateTag": null, "field1": null, "field2": null, "field3": null, "field4": null, "field5": null, "field6": null, "field7": null, "field8": null, "field9": null, "field10": null, "field11": null, "field12": null, "field13": null, "field14": null, "field15": null, "field16": null, "field17": null, "field18": null, "field19": null, "field20": null, "totalCount": 0, "id": 456187, "officeId": 0, "privateId": "L4439", "otherPrivateId": null, "name": "\u66f2\u83f2", "nameCode": null, "sex": 2, "birth": null, "mobile": "\u672c\u4eba:13488812400", "phoneNumber": null, "phoneNumber1": null, "phoneNumber2": null, "phoneNumber3": null, "phoneNumber4": null, "phoneNumber5": null, "email": null, "occupation": null, "qq": null, "weixin": null, "identityCard": null, "homeAddress": null, "sourceTypeLevel1": null, "sourceType": null, "refereeName": null, "refereeId": null, "sourceTypeOne": null, "sourceTypeTwo": null, "sourceTypeThree": null, "medicalAlert": null, "firstVisit": null, "overdue": null, "pictureId": 0, "patientType": "\u4e34\u65f6", "isArchived": false, "isShared": false, "marketCenterAccount": null, "aliMarketCenterAccount": null, "membershipId": null, "tag": null, "dutyDoctorId": null, "doctorId": null, "nickName": null, "lastVisit": null, "lastDoctorId": null, "point": 0, "notes": null, "consultantId": null, "nationality": null, "medicine": "", "membershipTypeName": null, "membershipTypeAbbr": null, "cardNumber": null, "familyAddress": null, "isMembershipExpired": false, "onlineConsultantId": 0, "recordCreatedUser": 0, "department": null}, {"membershipTypeId": null, "membershipType": null, "doctorName": "882", "lastDoctorName": null, "officeName": null, "recordCreatedUserName": null, "shareName": null, "recordCreatedTime": "0001-01-01T00:00:00", "totalAmount": null, "isSharedMembershipExpired": false, "province": null, "city": null, "district": null, "content": null, "dutyDoctorName": "", "onlineConsultantName": "", "developerId": null, "developerName": "", "attendantId": null, "attendantName": "", "job": null, "privateTag": null, "field1": null, "field2": null, "field3": null, "field4": null, "field5": null, "field6": null, "field7": null, "field8": null, "field9": null, "field10": null, "field11": null, "field12": null, "field13": null, "field14": null, "field15": null, "field16": null, "field17": null, "field18": null, "field19": null, "field20": null, "totalCount": 0, "id": 456150, "officeId": 0, "privateId": "9810", "otherPrivateId": null, "name": "\u90d1\u84d3", "nameCode": null, "sex": 2, "birth": "1977-08-22T00:00:00", "mobile": "\u672c\u4eba:15010998589", "phoneNumber": null, "phoneNumber1": null, "phoneNumber2": null, "phoneNumber3": null, "phoneNumber4": null, "phoneNumber5": null, "email": null, "occupation": null, "qq": null, "weixin": null, "identityCard": null, "homeAddress": null, "sourceTypeLevel1": null, "sourceType": null, "refereeName": null, "refereeId": null, "sourceTypeOne": null, "sourceTypeTwo": null, "sourceTypeThree": null, "medicalAlert": null, "firstVisit": null, "overdue": 0.0, "pictureId": 0, "patientType": "\u666e\u901a", "isArchived": false, "isShared": false, "marketCenterAccount": null, "aliMarketCenterAccount": null, "membershipId": null, "tag": null, "dutyDoctorId": null, "doctorId": null, "nickName": null, "lastVisit": null, "lastDoctorId": null, "point": 0, "notes": null, "consultantId": null, "nationality": null, "medicine": "", "membershipTypeName": null, "membershipTypeAbbr": null, "cardNumber": null, "familyAddress": null, "isMembershipExpired": false, "onlineConsultantId": 0, "recordCreatedUser": 0, "department": null}, {"membershipTypeId": null, "membershipType": null, "doctorName": "882", "lastDoctorName": null, "officeName": null, "recordCreatedUserName": null, "shareName": null, "recordCreatedTime": "0001-01-01T00:00:00", "totalAmount": null, "isSharedMembershipExpired": false, "province": null, "city": null, "district": null, "content": null, "dutyDoctorName": "", "onlineConsultantName": "", "developerId": null, "developerName": "", "attendantId": null, "attendantName": "", "job": null, "privateTag": null, "field1": null, "field2": null, "field3": null, "field4": null, "field5": null, "field6": null, "field7": null, "field8": null, "field9": null, "field10": null, "field11": null, "field12": null, "field13": null, "field14": null, "field15": null, "field16": null, "field17": null, "field18": null, "field19": null, "field20": null, "totalCount": 0, "id": 456100, "officeId": 0, "privateId": "L4437", "otherPrivateId": null, "name": "\u59da\u5973\u58eb", "nameCode": null, "sex": 2, "birth": null, "mobile": "\u672c\u4eba:15867848595", "phoneNumber": null, "phoneNumber1": null, "phoneNumber2": null, "phoneNumber3": null, "phoneNumber4": null, "phoneNumber5": null, "email": null, "occupation": null, "qq": null, "weixin": null, "identityCard": null, "homeAddress": null, "sourceTypeLevel1": null, "sourceType": null, "refereeName": null, "refereeId": null, "sourceTypeOne": null, "sourceTypeTwo": null, "sourceTypeThree": null, "medicalAlert": null, "firstVisit": null, "overdue": null, "pictureId": 0, "patientType": "\u4e34\u65f6", "isArchived": false, "isShared": false, "marketCenterAccount": null, "aliMarketCenterAccount": null, "membershipId": null, "tag": null, "dutyDoctorId": null, "doctorId": null, "nickName": null, "lastVisit": null, "lastDoctorId": null, "point": 0, "notes": null, "consultantId": null, "nationality": null, "medicine": "", "membershipTypeName": null, "membershipTypeAbbr": null, "cardNumber": null, "familyAddress": null, "isMembershipExpired": false, "onlineConsultantId": 0, "recordCreatedUser": 0, "department": null}]}