{"pageIndex": 1, "pageSize": 5, "pageCount": 2546, "totalCount": 12728, "items": [{"membershipTypeId": null, "membershipType": null, "doctorName": null, "lastDoctorName": null, "officeName": null, "recordCreatedUserName": null, "shareName": null, "recordCreatedTime": "0001-01-01T00:00:00", "totalAmount": null, "isSharedMembershipExpired": false, "province": null, "city": null, "district": null, "content": null, "dutyDoctorName": "", "onlineConsultantName": "", "developerId": null, "developerName": "", "attendantId": null, "attendantName": "", "job": null, "privateTag": null, "field1": null, "field2": null, "field3": null, "field4": null, "field5": null, "field6": null, "field7": null, "field8": null, "field9": null, "field10": null, "field11": null, "field12": null, "field13": null, "field14": null, "field15": null, "field16": null, "field17": null, "field18": null, "field19": null, "field20": null, "totalCount": 0, "id": 456201, "officeId": 0, "privateId": "L8542", "otherPrivateId": null, "name": "\u738b\u5973\u58eb\u59b9\u59b9", "nameCode": null, "sex": 0, "birth": null, "mobile": "\u672c\u4eba:17610003502", "phoneNumber": null, "phoneNumber1": null, "phoneNumber2": null, "phoneNumber3": null, "phoneNumber4": null, "phoneNumber5": null, "email": null, "occupation": null, "qq": null, "weixin": null, "identityCard": null, "homeAddress": null, "sourceTypeLevel1": null, "sourceType": null, "refereeName": null, "refereeId": null, "sourceTypeOne": null, "sourceTypeTwo": null, "sourceTypeThree": null, "medicalAlert": null, "firstVisit": null, "overdue": null, "pictureId": 0, "patientType": "\u4e34\u65f6", "isArchived": false, "isShared": false, "marketCenterAccount": null, "aliMarketCenterAccount": null, "membershipId": null, "tag": null, "dutyDoctorId": null, "doctorId": null, "nickName": null, "lastVisit": null, "lastDoctorId": null, "point": 0, "notes": null, "consultantId": null, "nationality": null, "medicine": "", "membershipTypeName": null, "membershipTypeAbbr": null, "cardNumber": null, "familyAddress": null, "isMembershipExpired": false, "onlineConsultantId": 0, "recordCreatedUser": 0, "department": null}, {"membershipTypeId": null, "membershipType": null, "doctorName": "1836", "lastDoctorName": null, "officeName": null, "recordCreatedUserName": null, "shareName": null, "recordCreatedTime": "0001-01-01T00:00:00", "totalAmount": null, "isSharedMembershipExpired": false, "province": null, "city": null, "district": null, "content": null, "dutyDoctorName": "", "onlineConsultantName": "", "developerId": null, "developerName": "", "attendantId": null, "attendantName": "", "job": null, "privateTag": null, "field1": null, "field2": null, "field3": null, "field4": null, "field5": null, "field6": null, "field7": null, "field8": null, "field9": null, "field10": null, "field11": null, "field12": null, "field13": null, "field14": null, "field15": null, "field16": null, "field17": null, "field18": null, "field19": null, "field20": null, "totalCount": 0, "id": 456194, "officeId": 0, "privateId": "10343", "otherPrivateId": null, "name": "\u7a0b\u7acb\u82b9", "nameCode": null, "sex": 2, "birth": "1968-06-26T00:00:00", "mobile": null, "phoneNumber": null, "phoneNumber1": null, "phoneNumber2": null, "phoneNumber3": null, "phoneNumber4": null, "phoneNumber5": null, "email": null, "occupation": null, "qq": null, "weixin": null, "identityCard": null, "homeAddress": null, "sourceTypeLevel1": null, "sourceType": null, "refereeName": null, "refereeId": null, "sourceTypeOne": null, "sourceTypeTwo": null, "sourceTypeThree": null, "medicalAlert": null, "firstVisit": null, "overdue": 0.0, "pictureId": 0, "patientType": "\u666e\u901a", "isArchived": false, "isShared": false, "marketCenterAccount": null, "aliMarketCenterAccount": null, "membershipId": null, "tag": null, "dutyDoctorId": null, "doctorId": null, "nickName": null, "lastVisit": null, "lastDoctorId": null, "point": 0, "notes": null, "consultantId": null, "nationality": null, "medicine": "", "membershipTypeName": null, "membershipTypeAbbr": null, "cardNumber": null, "familyAddress": null, "isMembershipExpired": false, "onlineConsultantId": 0, "recordCreatedUser": 0, "department": null}, {"membershipTypeId": null, "membershipType": null, "doctorName": "1163", "lastDoctorName": null, "officeName": null, "recordCreatedUserName": null, "shareName": null, "recordCreatedTime": "0001-01-01T00:00:00", "totalAmount": null, "isSharedMembershipExpired": false, "province": null, "city": null, "district": null, "content": null, "dutyDoctorName": "", "onlineConsultantName": "", "developerId": null, "developerName": "", "attendantId": null, "attendantName": "", "job": null, "privateTag": null, "field1": null, "field2": null, "field3": null, "field4": null, "field5": null, "field6": null, "field7": null, "field8": null, "field9": null, "field10": null, "field11": null, "field12": null, "field13": null, "field14": null, "field15": null, "field16": null, "field17": null, "field18": null, "field19": null, "field20": null, "totalCount": 0, "id": 456182, "officeId": 0, "privateId": "10341", "otherPrivateId": null, "name": "\u5f20\u82d1\u5988\u5988", "nameCode": null, "sex": 2, "birth": null, "mobile": null, "phoneNumber": null, "phoneNumber1": null, "phoneNumber2": null, "phoneNumber3": null, "phoneNumber4": null, "phoneNumber5": null, "email": null, "occupation": null, "qq": null, "weixin": null, "identityCard": null, "homeAddress": null, "sourceTypeLevel1": null, "sourceType": null, "refereeName": null, "refereeId": null, "sourceTypeOne": null, "sourceTypeTwo": null, "sourceTypeThree": null, "medicalAlert": null, "firstVisit": null, "overdue": null, "pictureId": 0, "patientType": "\u666e\u901a", "isArchived": false, "isShared": false, "marketCenterAccount": null, "aliMarketCenterAccount": null, "membershipId": null, "tag": null, "dutyDoctorId": null, "doctorId": null, "nickName": null, "lastVisit": null, "lastDoctorId": null, "point": 0, "notes": null, "consultantId": null, "nationality": null, "medicine": "", "membershipTypeName": null, "membershipTypeAbbr": null, "cardNumber": null, "familyAddress": null, "isMembershipExpired": false, "onlineConsultantId": 0, "recordCreatedUser": 0, "department": null}, {"membershipTypeId": null, "membershipType": null, "doctorName": null, "lastDoctorName": null, "officeName": null, "recordCreatedUserName": null, "shareName": null, "recordCreatedTime": "0001-01-01T00:00:00", "totalAmount": null, "isSharedMembershipExpired": false, "province": null, "city": null, "district": null, "content": null, "dutyDoctorName": "", "onlineConsultantName": "", "developerId": null, "developerName": "", "attendantId": null, "attendantName": "", "job": null, "privateTag": null, "field1": null, "field2": null, "field3": null, "field4": null, "field5": null, "field6": null, "field7": null, "field8": null, "field9": null, "field10": null, "field11": null, "field12": null, "field13": null, "field14": null, "field15": null, "field16": null, "field17": null, "field18": null, "field19": null, "field20": null, "totalCount": 0, "id": 456162, "officeId": 0, "privateId": "L8541", "otherPrivateId": null, "name": "\u6731\u654f", "nameCode": null, "sex": 0, "birth": null, "mobile": "\u672c\u4eba:13766881217", "phoneNumber": null, "phoneNumber1": null, "phoneNumber2": null, "phoneNumber3": null, "phoneNumber4": null, "phoneNumber5": null, "email": null, "occupation": null, "qq": null, "weixin": null, "identityCard": null, "homeAddress": null, "sourceTypeLevel1": null, "sourceType": null, "refereeName": null, "refereeId": null, "sourceTypeOne": null, "sourceTypeTwo": null, "sourceTypeThree": null, "medicalAlert": null, "firstVisit": null, "overdue": null, "pictureId": 0, "patientType": "\u4e34\u65f6", "isArchived": false, "isShared": false, "marketCenterAccount": null, "aliMarketCenterAccount": null, "membershipId": null, "tag": null, "dutyDoctorId": null, "doctorId": null, "nickName": null, "lastVisit": null, "lastDoctorId": null, "point": 0, "notes": null, "consultantId": null, "nationality": null, "medicine": "", "membershipTypeName": null, "membershipTypeAbbr": null, "cardNumber": null, "familyAddress": null, "isMembershipExpired": false, "onlineConsultantId": 0, "recordCreatedUser": 0, "department": null}, {"membershipTypeId": null, "membershipType": null, "doctorName": "1305", "lastDoctorName": null, "officeName": null, "recordCreatedUserName": null, "shareName": null, "recordCreatedTime": "0001-01-01T00:00:00", "totalAmount": null, "isSharedMembershipExpired": false, "province": null, "city": null, "district": null, "content": null, "dutyDoctorName": "", "onlineConsultantName": "", "developerId": null, "developerName": "", "attendantId": null, "attendantName": "", "job": null, "privateTag": null, "field1": null, "field2": null, "field3": null, "field4": null, "field5": null, "field6": null, "field7": null, "field8": null, "field9": null, "field10": null, "field11": null, "field12": null, "field13": null, "field14": null, "field15": null, "field16": null, "field17": null, "field18": null, "field19": null, "field20": null, "totalCount": 0, "id": 456147, "officeId": 0, "privateId": "10344", "otherPrivateId": null, "name": "\u5f90\u7d20\u5764", "nameCode": null, "sex": 2, "birth": "1960-08-15T00:00:00", "mobile": "\u5bb6\u957f:13068484361", "phoneNumber": null, "phoneNumber1": null, "phoneNumber2": null, "phoneNumber3": null, "phoneNumber4": null, "phoneNumber5": null, "email": null, "occupation": null, "qq": null, "weixin": null, "identityCard": null, "homeAddress": null, "sourceTypeLevel1": null, "sourceType": null, "refereeName": null, "refereeId": null, "sourceTypeOne": null, "sourceTypeTwo": null, "sourceTypeThree": null, "medicalAlert": null, "firstVisit": null, "overdue": null, "pictureId": 0, "patientType": "\u666e\u901a", "isArchived": false, "isShared": false, "marketCenterAccount": null, "aliMarketCenterAccount": null, "membershipId": null, "tag": null, "dutyDoctorId": null, "doctorId": null, "nickName": null, "lastVisit": null, "lastDoctorId": null, "point": 0, "notes": null, "consultantId": null, "nationality": null, "medicine": "", "membershipTypeName": null, "membershipTypeAbbr": null, "cardNumber": null, "familyAddress": null, "isMembershipExpired": false, "onlineConsultantId": 0, "recordCreatedUser": 0, "department": null}]}