{"pageIndex": 2, "pageSize": 10, "pageCount": 1125, "totalCount": 11243, "items": [{"membershipTypeId": null, "membershipType": null, "doctorName": "2649", "lastDoctorName": null, "officeName": null, "recordCreatedUserName": null, "shareName": null, "recordCreatedTime": "0001-01-01T00:00:00", "totalAmount": null, "isSharedMembershipExpired": false, "province": null, "city": null, "district": null, "content": null, "dutyDoctorName": "", "onlineConsultantName": "", "developerId": null, "developerName": "", "attendantId": null, "attendantName": "", "job": null, "privateTag": null, "field1": null, "field2": null, "field3": null, "field4": null, "field5": null, "field6": null, "field7": null, "field8": null, "field9": null, "field10": null, "field11": null, "field12": null, "field13": null, "field14": null, "field15": null, "field16": null, "field17": null, "field18": null, "field19": null, "field20": null, "totalCount": 0, "id": 455938, "officeId": 0, "privateId": "9808", "otherPrivateId": null, "name": "\u4e8e\u6625\u7fbf", "nameCode": null, "sex": 2, "birth": "1994-04-11T00:00:00", "mobile": "\u672c\u4eba:18611035657", "phoneNumber": null, "phoneNumber1": null, "phoneNumber2": null, "phoneNumber3": null, "phoneNumber4": null, "phoneNumber5": null, "email": null, "occupation": null, "qq": null, "weixin": null, "identityCard": null, "homeAddress": null, "sourceTypeLevel1": null, "sourceType": null, "refereeName": null, "refereeId": null, "sourceTypeOne": null, "sourceTypeTwo": null, "sourceTypeThree": null, "medicalAlert": null, "firstVisit": null, "overdue": 0.0, "pictureId": 0, "patientType": "\u666e\u901a", "isArchived": false, "isShared": false, "marketCenterAccount": null, "aliMarketCenterAccount": null, "membershipId": null, "tag": null, "dutyDoctorId": null, "doctorId": null, "nickName": null, "lastVisit": null, "lastDoctorId": null, "point": 0, "notes": null, "consultantId": null, "nationality": null, "medicine": "", "membershipTypeName": null, "membershipTypeAbbr": null, "cardNumber": null, "familyAddress": null, "isMembershipExpired": false, "onlineConsultantId": 0, "recordCreatedUser": 0, "department": null}, {"membershipTypeId": null, "membershipType": null, "doctorName": "913", "lastDoctorName": null, "officeName": null, "recordCreatedUserName": null, "shareName": null, "recordCreatedTime": "0001-01-01T00:00:00", "totalAmount": null, "isSharedMembershipExpired": false, "province": null, "city": null, "district": null, "content": null, "dutyDoctorName": "", "onlineConsultantName": "", "developerId": null, "developerName": "", "attendantId": null, "attendantName": "", "job": null, "privateTag": null, "field1": null, "field2": null, "field3": null, "field4": null, "field5": null, "field6": null, "field7": null, "field8": null, "field9": null, "field10": null, "field11": null, "field12": null, "field13": null, "field14": null, "field15": null, "field16": null, "field17": null, "field18": null, "field19": null, "field20": null, "totalCount": 0, "id": 455920, "officeId": 0, "privateId": "9803", "otherPrivateId": null, "name": "\u5eb7\u66fc", "nameCode": null, "sex": 2, "birth": null, "mobile": "\u672c\u4eba:17326883771", "phoneNumber": null, "phoneNumber1": null, "phoneNumber2": null, "phoneNumber3": null, "phoneNumber4": null, "phoneNumber5": null, "email": null, "occupation": null, "qq": null, "weixin": null, "identityCard": null, "homeAddress": null, "sourceTypeLevel1": null, "sourceType": null, "refereeName": null, "refereeId": null, "sourceTypeOne": null, "sourceTypeTwo": null, "sourceTypeThree": null, "medicalAlert": null, "firstVisit": null, "overdue": null, "pictureId": 0, "patientType": "\u666e\u901a", "isArchived": false, "isShared": false, "marketCenterAccount": null, "aliMarketCenterAccount": null, "membershipId": null, "tag": null, "dutyDoctorId": null, "doctorId": null, "nickName": null, "lastVisit": null, "lastDoctorId": null, "point": 0, "notes": null, "consultantId": null, "nationality": null, "medicine": "", "membershipTypeName": null, "membershipTypeAbbr": null, "cardNumber": null, "familyAddress": null, "isMembershipExpired": false, "onlineConsultantId": 0, "recordCreatedUser": 0, "department": null}, {"membershipTypeId": null, "membershipType": null, "doctorName": "2649", "lastDoctorName": null, "officeName": null, "recordCreatedUserName": null, "shareName": null, "recordCreatedTime": "0001-01-01T00:00:00", "totalAmount": null, "isSharedMembershipExpired": false, "province": null, "city": null, "district": null, "content": null, "dutyDoctorName": "", "onlineConsultantName": "", "developerId": null, "developerName": "", "attendantId": null, "attendantName": "", "job": null, "privateTag": null, "field1": null, "field2": null, "field3": null, "field4": null, "field5": null, "field6": null, "field7": null, "field8": null, "field9": null, "field10": null, "field11": null, "field12": null, "field13": null, "field14": null, "field15": null, "field16": null, "field17": null, "field18": null, "field19": null, "field20": null, "totalCount": 0, "id": 455889, "officeId": 0, "privateId": "L4431", "otherPrivateId": null, "name": "\u6b66\u5973\u58eb", "nameCode": null, "sex": 2, "birth": null, "mobile": "\u672c\u4eba:13604763290", "phoneNumber": null, "phoneNumber1": null, "phoneNumber2": null, "phoneNumber3": null, "phoneNumber4": null, "phoneNumber5": null, "email": null, "occupation": null, "qq": null, "weixin": null, "identityCard": null, "homeAddress": null, "sourceTypeLevel1": null, "sourceType": null, "refereeName": null, "refereeId": null, "sourceTypeOne": null, "sourceTypeTwo": null, "sourceTypeThree": null, "medicalAlert": null, "firstVisit": null, "overdue": null, "pictureId": 0, "patientType": "\u4e34\u65f6", "isArchived": false, "isShared": false, "marketCenterAccount": null, "aliMarketCenterAccount": null, "membershipId": null, "tag": null, "dutyDoctorId": null, "doctorId": null, "nickName": null, "lastVisit": null, "lastDoctorId": null, "point": 0, "notes": null, "consultantId": null, "nationality": null, "medicine": "", "membershipTypeName": null, "membershipTypeAbbr": null, "cardNumber": null, "familyAddress": null, "isMembershipExpired": false, "onlineConsultantId": 0, "recordCreatedUser": 0, "department": null}, {"membershipTypeId": null, "membershipType": null, "doctorName": "2649", "lastDoctorName": null, "officeName": null, "recordCreatedUserName": null, "shareName": null, "recordCreatedTime": "0001-01-01T00:00:00", "totalAmount": null, "isSharedMembershipExpired": false, "province": null, "city": null, "district": null, "content": null, "dutyDoctorName": "", "onlineConsultantName": "", "developerId": null, "developerName": "", "attendantId": null, "attendantName": "", "job": null, "privateTag": null, "field1": null, "field2": null, "field3": null, "field4": null, "field5": null, "field6": null, "field7": null, "field8": null, "field9": null, "field10": null, "field11": null, "field12": null, "field13": null, "field14": null, "field15": null, "field16": null, "field17": null, "field18": null, "field19": null, "field20": null, "totalCount": 0, "id": 455883, "officeId": 0, "privateId": "L4430", "otherPrivateId": null, "name": "\u5f20\u5065", "nameCode": null, "sex": 1, "birth": null, "mobile": "\u672c\u4eba:13265698100", "phoneNumber": null, "phoneNumber1": null, "phoneNumber2": null, "phoneNumber3": null, "phoneNumber4": null, "phoneNumber5": null, "email": null, "occupation": null, "qq": null, "weixin": null, "identityCard": null, "homeAddress": null, "sourceTypeLevel1": null, "sourceType": null, "refereeName": null, "refereeId": null, "sourceTypeOne": null, "sourceTypeTwo": null, "sourceTypeThree": null, "medicalAlert": null, "firstVisit": null, "overdue": null, "pictureId": 0, "patientType": "\u4e34\u65f6", "isArchived": false, "isShared": false, "marketCenterAccount": null, "aliMarketCenterAccount": null, "membershipId": null, "tag": null, "dutyDoctorId": null, "doctorId": null, "nickName": null, "lastVisit": null, "lastDoctorId": null, "point": 0, "notes": null, "consultantId": null, "nationality": null, "medicine": "", "membershipTypeName": null, "membershipTypeAbbr": null, "cardNumber": null, "familyAddress": null, "isMembershipExpired": false, "onlineConsultantId": 0, "recordCreatedUser": 0, "department": null}, {"membershipTypeId": null, "membershipType": null, "doctorName": "913", "lastDoctorName": null, "officeName": null, "recordCreatedUserName": null, "shareName": null, "recordCreatedTime": "0001-01-01T00:00:00", "totalAmount": null, "isSharedMembershipExpired": false, "province": null, "city": null, "district": null, "content": null, "dutyDoctorName": "", "onlineConsultantName": "", "developerId": null, "developerName": "", "attendantId": null, "attendantName": "", "job": null, "privateTag": null, "field1": null, "field2": null, "field3": null, "field4": null, "field5": null, "field6": null, "field7": null, "field8": null, "field9": null, "field10": null, "field11": null, "field12": null, "field13": null, "field14": null, "field15": null, "field16": null, "field17": null, "field18": null, "field19": null, "field20": null, "totalCount": 0, "id": 455776, "officeId": 0, "privateId": "L4429", "otherPrivateId": null, "name": "\u949f\u660e\u7ff0", "nameCode": null, "sex": 1, "birth": null, "mobile": "\u672c\u4eba:13691108839", "phoneNumber": null, "phoneNumber1": null, "phoneNumber2": null, "phoneNumber3": null, "phoneNumber4": null, "phoneNumber5": null, "email": null, "occupation": null, "qq": null, "weixin": null, "identityCard": null, "homeAddress": null, "sourceTypeLevel1": null, "sourceType": null, "refereeName": null, "refereeId": null, "sourceTypeOne": null, "sourceTypeTwo": null, "sourceTypeThree": null, "medicalAlert": null, "firstVisit": null, "overdue": null, "pictureId": 0, "patientType": "\u4e34\u65f6", "isArchived": false, "isShared": false, "marketCenterAccount": null, "aliMarketCenterAccount": null, "membershipId": null, "tag": null, "dutyDoctorId": null, "doctorId": null, "nickName": null, "lastVisit": null, "lastDoctorId": null, "point": 0, "notes": null, "consultantId": null, "nationality": null, "medicine": "", "membershipTypeName": null, "membershipTypeAbbr": null, "cardNumber": null, "familyAddress": null, "isMembershipExpired": false, "onlineConsultantId": 0, "recordCreatedUser": 0, "department": null}, {"membershipTypeId": null, "membershipType": null, "doctorName": "895", "lastDoctorName": null, "officeName": null, "recordCreatedUserName": null, "shareName": null, "recordCreatedTime": "0001-01-01T00:00:00", "totalAmount": null, "isSharedMembershipExpired": false, "province": null, "city": null, "district": null, "content": null, "dutyDoctorName": "", "onlineConsultantName": "", "developerId": null, "developerName": "", "attendantId": null, "attendantName": "", "job": null, "privateTag": null, "field1": null, "field2": null, "field3": null, "field4": null, "field5": null, "field6": null, "field7": null, "field8": null, "field9": null, "field10": null, "field11": null, "field12": null, "field13": null, "field14": null, "field15": null, "field16": null, "field17": null, "field18": null, "field19": null, "field20": null, "totalCount": 0, "id": 455770, "officeId": 0, "privateId": "9805", "otherPrivateId": null, "name": "\u5b8b\u6d69\u6bd3", "nameCode": null, "sex": 1, "birth": "1988-06-14T00:00:00", "mobile": "\u672c\u4eba:18636420555", "phoneNumber": null, "phoneNumber1": null, "phoneNumber2": null, "phoneNumber3": null, "phoneNumber4": null, "phoneNumber5": null, "email": null, "occupation": null, "qq": null, "weixin": null, "identityCard": null, "homeAddress": null, "sourceTypeLevel1": null, "sourceType": null, "refereeName": null, "refereeId": null, "sourceTypeOne": null, "sourceTypeTwo": null, "sourceTypeThree": null, "medicalAlert": null, "firstVisit": null, "overdue": 0.0, "pictureId": 0, "patientType": "\u666e\u901a", "isArchived": false, "isShared": false, "marketCenterAccount": null, "aliMarketCenterAccount": null, "membershipId": null, "tag": null, "dutyDoctorId": null, "doctorId": null, "nickName": null, "lastVisit": null, "lastDoctorId": null, "point": 0, "notes": null, "consultantId": null, "nationality": null, "medicine": "", "membershipTypeName": null, "membershipTypeAbbr": null, "cardNumber": null, "familyAddress": null, "isMembershipExpired": false, "onlineConsultantId": 0, "recordCreatedUser": 0, "department": null}, {"membershipTypeId": null, "membershipType": null, "doctorName": "913", "lastDoctorName": null, "officeName": null, "recordCreatedUserName": null, "shareName": null, "recordCreatedTime": "0001-01-01T00:00:00", "totalAmount": null, "isSharedMembershipExpired": false, "province": null, "city": null, "district": null, "content": null, "dutyDoctorName": "", "onlineConsultantName": "", "developerId": null, "developerName": "", "attendantId": null, "attendantName": "", "job": null, "privateTag": null, "field1": null, "field2": null, "field3": null, "field4": null, "field5": null, "field6": null, "field7": null, "field8": null, "field9": null, "field10": null, "field11": null, "field12": null, "field13": null, "field14": null, "field15": null, "field16": null, "field17": null, "field18": null, "field19": null, "field20": null, "totalCount": 0, "id": 455736, "officeId": 0, "privateId": "9794", "otherPrivateId": null, "name": "\u8096\u5189", "nameCode": null, "sex": 2, "birth": "1985-01-30T00:00:00", "mobile": "\u672c\u4eba:18600457252", "phoneNumber": null, "phoneNumber1": null, "phoneNumber2": null, "phoneNumber3": null, "phoneNumber4": null, "phoneNumber5": null, "email": null, "occupation": null, "qq": null, "weixin": null, "identityCard": null, "homeAddress": null, "sourceTypeLevel1": null, "sourceType": null, "refereeName": null, "refereeId": null, "sourceTypeOne": null, "sourceTypeTwo": null, "sourceTypeThree": null, "medicalAlert": null, "firstVisit": null, "overdue": 0.0, "pictureId": 0, "patientType": "\u666e\u901a", "isArchived": false, "isShared": false, "marketCenterAccount": null, "aliMarketCenterAccount": null, "membershipId": null, "tag": null, "dutyDoctorId": null, "doctorId": null, "nickName": null, "lastVisit": null, "lastDoctorId": null, "point": 0, "notes": null, "consultantId": null, "nationality": null, "medicine": "", "membershipTypeName": null, "membershipTypeAbbr": null, "cardNumber": null, "familyAddress": null, "isMembershipExpired": false, "onlineConsultantId": 0, "recordCreatedUser": 0, "department": null}, {"membershipTypeId": null, "membershipType": null, "doctorName": "913", "lastDoctorName": null, "officeName": null, "recordCreatedUserName": null, "shareName": null, "recordCreatedTime": "0001-01-01T00:00:00", "totalAmount": null, "isSharedMembershipExpired": false, "province": null, "city": null, "district": null, "content": null, "dutyDoctorName": "", "onlineConsultantName": "", "developerId": null, "developerName": "", "attendantId": null, "attendantName": "", "job": null, "privateTag": null, "field1": null, "field2": null, "field3": null, "field4": null, "field5": null, "field6": null, "field7": null, "field8": null, "field9": null, "field10": null, "field11": null, "field12": null, "field13": null, "field14": null, "field15": null, "field16": null, "field17": null, "field18": null, "field19": null, "field20": null, "totalCount": 0, "id": 455726, "officeId": 0, "privateId": "9792", "otherPrivateId": null, "name": "\u5218\u745e\u5764", "nameCode": null, "sex": 2, "birth": "1995-01-31T00:00:00", "mobile": "\u672c\u4eba:13261972752", "phoneNumber": null, "phoneNumber1": null, "phoneNumber2": null, "phoneNumber3": null, "phoneNumber4": null, "phoneNumber5": null, "email": null, "occupation": null, "qq": null, "weixin": null, "identityCard": null, "homeAddress": null, "sourceTypeLevel1": null, "sourceType": null, "refereeName": null, "refereeId": null, "sourceTypeOne": null, "sourceTypeTwo": null, "sourceTypeThree": null, "medicalAlert": null, "firstVisit": null, "overdue": 0.0, "pictureId": 0, "patientType": "\u666e\u901a", "isArchived": false, "isShared": false, "marketCenterAccount": null, "aliMarketCenterAccount": null, "membershipId": null, "tag": null, "dutyDoctorId": null, "doctorId": null, "nickName": null, "lastVisit": null, "lastDoctorId": null, "point": 0, "notes": null, "consultantId": null, "nationality": null, "medicine": "", "membershipTypeName": null, "membershipTypeAbbr": null, "cardNumber": null, "familyAddress": null, "isMembershipExpired": false, "onlineConsultantId": 0, "recordCreatedUser": 0, "department": null}, {"membershipTypeId": null, "membershipType": null, "doctorName": "913", "lastDoctorName": null, "officeName": null, "recordCreatedUserName": null, "shareName": null, "recordCreatedTime": "0001-01-01T00:00:00", "totalAmount": null, "isSharedMembershipExpired": false, "province": null, "city": null, "district": null, "content": null, "dutyDoctorName": "", "onlineConsultantName": "", "developerId": null, "developerName": "", "attendantId": null, "attendantName": "", "job": null, "privateTag": null, "field1": null, "field2": null, "field3": null, "field4": null, "field5": null, "field6": null, "field7": null, "field8": null, "field9": null, "field10": null, "field11": null, "field12": null, "field13": null, "field14": null, "field15": null, "field16": null, "field17": null, "field18": null, "field19": null, "field20": null, "totalCount": 0, "id": 455709, "officeId": 0, "privateId": "9790", "otherPrivateId": null, "name": "\u4f0a\u7433\u7433", "nameCode": null, "sex": 2, "birth": "1981-12-26T00:00:00", "mobile": "\u672c\u4eba:13910001038", "phoneNumber": null, "phoneNumber1": null, "phoneNumber2": null, "phoneNumber3": null, "phoneNumber4": null, "phoneNumber5": null, "email": null, "occupation": null, "qq": null, "weixin": null, "identityCard": null, "homeAddress": null, "sourceTypeLevel1": null, "sourceType": null, "refereeName": null, "refereeId": null, "sourceTypeOne": null, "sourceTypeTwo": null, "sourceTypeThree": null, "medicalAlert": null, "firstVisit": null, "overdue": 0.0, "pictureId": 0, "patientType": "\u666e\u901a", "isArchived": false, "isShared": false, "marketCenterAccount": null, "aliMarketCenterAccount": null, "membershipId": null, "tag": null, "dutyDoctorId": null, "doctorId": null, "nickName": null, "lastVisit": null, "lastDoctorId": null, "point": 0, "notes": null, "consultantId": null, "nationality": null, "medicine": "", "membershipTypeName": null, "membershipTypeAbbr": null, "cardNumber": null, "familyAddress": null, "isMembershipExpired": false, "onlineConsultantId": 0, "recordCreatedUser": 0, "department": null}, {"membershipTypeId": null, "membershipType": null, "doctorName": "913", "lastDoctorName": null, "officeName": null, "recordCreatedUserName": null, "shareName": null, "recordCreatedTime": "0001-01-01T00:00:00", "totalAmount": null, "isSharedMembershipExpired": false, "province": null, "city": null, "district": null, "content": null, "dutyDoctorName": "", "onlineConsultantName": "", "developerId": null, "developerName": "", "attendantId": null, "attendantName": "", "job": null, "privateTag": null, "field1": null, "field2": null, "field3": null, "field4": null, "field5": null, "field6": null, "field7": null, "field8": null, "field9": null, "field10": null, "field11": null, "field12": null, "field13": null, "field14": null, "field15": null, "field16": null, "field17": null, "field18": null, "field19": null, "field20": null, "totalCount": 0, "id": 455705, "officeId": 0, "privateId": "9789", "otherPrivateId": null, "name": "\u5468\u9759\u971e", "nameCode": null, "sex": 2, "birth": "1979-01-07T00:00:00", "mobile": "\u672c\u4eba:15210098500", "phoneNumber": null, "phoneNumber1": null, "phoneNumber2": null, "phoneNumber3": null, "phoneNumber4": null, "phoneNumber5": null, "email": null, "occupation": null, "qq": null, "weixin": null, "identityCard": null, "homeAddress": null, "sourceTypeLevel1": null, "sourceType": null, "refereeName": null, "refereeId": null, "sourceTypeOne": null, "sourceTypeTwo": null, "sourceTypeThree": null, "medicalAlert": null, "firstVisit": null, "overdue": null, "pictureId": 0, "patientType": "\u666e\u901a", "isArchived": false, "isShared": false, "marketCenterAccount": null, "aliMarketCenterAccount": null, "membershipId": null, "tag": null, "dutyDoctorId": null, "doctorId": null, "nickName": null, "lastVisit": null, "lastDoctorId": null, "point": 0, "notes": null, "consultantId": null, "nationality": null, "medicine": "", "membershipTypeName": null, "membershipTypeAbbr": null, "cardNumber": null, "familyAddress": null, "isMembershipExpired": false, "onlineConsultantId": 0, "recordCreatedUser": 0, "department": null}]}